{
  "key": "manage-ai",
  "de":{
    "title": "KI-Assistenten erstellen",
    "description": "Du kannst hier einen KI-Assistenten erstellen, der dir und deinen Raumnutzern als Experte für ein bestimmtes Thema dient. So erhältst du bessere Antworten, die auf Deine Dateien und Anweisungen passen.",
    "create": "Erstellen",
    "edit": "Bearbeiten",
    "delete": "Löschen",
    "maxChars": "{{current}} / {{max}}",
    "createLabel": "Erstellen",
    "editLabel": "Aktualisieren",
    "deleteLabel": "Löschen",
    "entryName": "Name deines Assistenten",
    "entryDescription": "Was soll er wissen?",
    "entryModel": "Modellauswahl",
    "entryInstructions": "Wie soll er antworten?",
    "entryFilesearch": "mit Datei-Upload",
    "entryCodeInterpreter": "mit Datenverarbeitung",
    "entryTemperature": "Kreativitätsspielraum (1 = höchst kreativ)",
    "entryTopP": "Antwortfilter (1 = höchst präzise)"
  },
  "en": {
    "title": "Manage AI Assistants",
    "description": "Here, you can create an AI assistant that serves as an expert for a specific topic for you and your room users. This way, you get better answers tailored to your files and instructions.",
    "create": "Create",
    "edit": "Edit",
    "delete": "Delete",
    "maxChars": "{{current}} / {{max}}",
    "createLabel": "Create",
    "editLabel": "Update",
    "deleteLabel": "Delete",
    "entryName": "Assistant's Name",
    "entryDescription": "What should it know?",
    "entryModel": "Model Selection",
    "entryInstructions": "How should it respond?",
    "entryFilesearch": "with File Upload",
    "entryCodeInterpreter": "with Data Processing",
    "entryTemperature": "Creativity Level (1 = most creative)",
    "entryTopP": "Response Filter (1 = most precise)"
  },
  "fr": {
    "title": "Gère tes assistants IA",
    "description": "Ici, tu peux créer un assistant IA qui sert d'expert pour un sujet spécifique, pour toi et les utilisateurs de ta salle. Tu obtiendras ainsi de meilleures réponses adaptées à tes fichiers et instructions.",
    "create": "Créer",
    "edit": "Modifier",
    "delete": "Supprimer",
    "maxChars": "{{current}} / {{max}}",
    "createLabel": "Créer",
    "editLabel": "Mettre à jour",
    "deleteLabel": "Supprimer",
    "entryName": "Nom de ton assistant",
    "entryDescription": "Que doit-il savoir ?",
    "entryModel": "Choix du modèle",
    "entryInstructions": "Comment doit-il répondre ?",
    "entryFilesearch": "avec téléversement de fichier",
    "entryCodeInterpreter": "avec traitement des données",
    "entryTemperature": "Niveau de créativité (1 = très créatif)",
    "entryTopP": "Filtre de réponse (1 = très précis)"
  }
}
